\relax 
\abx@aux@refcontext{apa/global//global/global}
\providecommand\hyper@newdestlabel[2]{}
\providecommand\HyField@AuxAddToFields[1]{}
\providecommand\HyField@AuxAddToCoFields[2]{}
\providecommand\babel@aux[2]{}
\@nameuse{bbl@beforestart}
\catcode `"\active 
\catcode `<\active 
\catcode `>\active 
\@nameuse{es@quoting}
\babel@aux{spanish}{}
\abx@aux@refcontext{apa/apasortcite//global/global}
\abx@aux@cite{0}{usNavyElf}
\abx@aux@segm{0}{0}{usNavyElf}
\@writefile{toc}{\contentsline {section}{Introducción}{3}{section*.3}\protected@file@percent }
\abx@aux@page{1}{3}
\@writefile{toc}{\contentsline {section}{Método}{4}{section*.4}\protected@file@percent }
\@writefile{toc}{\contentsline {section}{Resultados}{4}{section*.5}\protected@file@percent }
\@writefile{toc}{\contentsline {section}{Discusión}{4}{section*.6}\protected@file@percent }
\@writefile{toc}{\contentsline {section}{Referencias}{4}{section*.7}\protected@file@percent }
\abx@aux@page{2}{5}
\abx@aux@page{3}{5}
\@writefile{toc}{\contentsline {section}{Discussion}{5}{section*.9}\protected@file@percent }
\@writefile{lot}{\contentsline {table}{\numberline {1}{\ignorespaces Sample Basic Table}}{6}{table.caption.10}\protected@file@percent }
\providecommand*\caption@xref[2]{\@setref\relax\@undefined{#1}}
\newlabel{tab:BasicTable}{{1}{6}{Sample Basic Table}{table.caption.10}{}}
\abx@aux@refcontext{apa/apasortcite//global/global}
\abx@aux@cite{0}{opticalAbsorption}
\abx@aux@segm{0}{0}{opticalAbsorption}
\@writefile{lof}{\contentsline {figure}{\numberline {1}{\ignorespaces Espectro de absorción}}{7}{figure.caption.11}\protected@file@percent }
\newlabel{fig:espectroAbsorcion}{{1}{7}{Espectro de absorción}{figure.caption.11}{}}
\@writefile{lof}{\contentsline {figure}{\numberline {2}{\ignorespaces This is my first figure caption.}}{8}{figure.caption.12}\protected@file@percent }
\newlabel{fig:Figure1}{{2}{8}{This is my first figure caption}{figure.caption.12}{}}
\newlabel{app:instrument}{{A}{9}{Instrument}{appendix.1}{}}
\@writefile{lof}{\contentsline {figure}{\numberline {A1}{\ignorespaces This is my second figure caption.}}{9}{figure.caption.13}\protected@file@percent }
\newlabel{fig:Figure2}{{A1}{9}{This is my second figure caption}{figure.caption.13}{}}
\global \oneappendixfalse
\newlabel{app:surveydata}{{B}{10}{Pilot Data}{appendix.2}{}}
\@writefile{lot}{\contentsline {table}{\numberline {B1}{\ignorespaces A More Complex Decked Table}}{10}{table.caption.15}\protected@file@percent }
\newlabel{tab:DeckedTable}{{B1}{10}{A More Complex Decked Table}{table.caption.15}{}}
\abx@aux@read@bbl@mdfivesum{682257E110815063AED43E94DAE2A4E2}
\abx@aux@defaultrefcontext{0}{opticalAbsorption}{apa/global//global/global}
\abx@aux@defaultrefcontext{0}{usNavyElf}{apa/global//global/global}
\gdef \@abspage@last{10}
