\BOOKMARK [1][-]{section*.3}{\376\377\000I\000n\000t\000r\000o\000d\000u\000c\000c\000i\000\363\000n}{}% 1
\BOOKMARK [1][-]{section*.4}{\376\377\000M\000\351\000t\000o\000d\000o}{}% 2
\BOOKMARK [1][-]{section*.5}{\376\377\000R\000e\000s\000u\000l\000t\000a\000d\000o\000s}{}% 3
\BOOKMARK [1][-]{section*.6}{\376\377\000D\000i\000s\000c\000u\000s\000i\000\363\000n}{}% 4
\BOOKMARK [1][-]{section*.7}{\376\377\000R\000e\000f\000e\000r\000e\000n\000c\000i\000a\000s}{}% 5
\BOOKMARK [1][-]{section*.9}{\376\377\000D\000i\000s\000c\000u\000s\000s\000i\000o\000n}{}% 6
